com/longbridge/soap/integrify/config/fiservices/MySSLSocketFactory$1.class
com/longbridge/console/doc/integrify_finacle_service/GetConsoleDocRequest.class
com/longbridge/console/doc/integrify_finacle_service/ServiceStatus.class
com/longbridge/console/doc/integrify_finacle_service/ObjectFactory.class
com/longbridge/soap/integrify/repository/ServiceStatusRepo.class
com/longbridge/console/doc/integrify_finacle_service/ConsoleStatus.class
com/longbridge/console/doc/integrify_finacle_service/GetConsoleDocResponse.class
com/longbridge/soap/integrify/services/implementation/IntegrifyDocServiceImpl.class
com/longbridge/console/doc/integrify_finacle_service/package-info.class
com/longbridge/console/doc/integrify_finacle_service/GetIntegrifyDocResponse.class
com/longbridge/console/doc/integrify_finacle_service/GetIntegrifyDocRequest.class
com/longbridge/soap/integrify/services/IntegrifyDocService.class
com/longbridge/soap/integrify/config/webservices/IntegrifyDocWsdlEndPoint.class
com/longbridge/soap/integrify/config/fiservices/CustomHttpClient.class
com/longbridge/soap/integrify/config/webservices/ConsoleDocWsdlEndPoint.class
com/longbridge/soap/integrify/config/AppConfig.class
com/longbridge/soap/integrify/models/IntegrifyRequest.class
com/longbridge/soap/integrify/config/webservices/WebServiceConfig.class
com/longbridge/soap/integrify/config/fiservices/MySSLSocketFactory.class
