/home/longbridge/Desktop/Longbridge/IntegrifyFinacleWebService/src/main/java/com/longbridge/console/doc/integrify_finacle_service/GetIntegrifyDocRequest.java
/home/longbridge/Desktop/Longbridge/IntegrifyFinacleWebService/src/main/java/com/longbridge/soap/integrify/IntegrifyFinacleApplication.java
/home/longbridge/Desktop/Longbridge/IntegrifyFinacleWebService/src/main/java/com/longbridge/soap/integrify/services/IntegrifyDocService.java
/home/longbridge/Desktop/Longbridge/IntegrifyFinacleWebService/src/main/java/com/longbridge/soap/integrify/repository/ServiceStatusRepo.java
/home/longbridge/Desktop/Longbridge/IntegrifyFinacleWebService/src/main/java/com/longbridge/console/doc/integrify_finacle_service/package-info.java
/home/longbridge/Desktop/Longbridge/IntegrifyFinacleWebService/src/main/java/com/longbridge/soap/integrify/services/ProcessFIService.java
/home/longbridge/Desktop/Longbridge/IntegrifyFinacleWebService/src/main/java/com/longbridge/console/doc/integrify_finacle_service/ObjectFactory.java
/home/longbridge/Desktop/Longbridge/IntegrifyFinacleWebService/src/main/java/com/longbridge/soap/integrify/config/AppConfig.java
/home/longbridge/Desktop/Longbridge/IntegrifyFinacleWebService/src/main/java/com/longbridge/console/doc/integrify_finacle_service/GetIntegrifyDocResponse.java
/home/longbridge/Desktop/Longbridge/IntegrifyFinacleWebService/src/main/java/com/longbridge/soap/integrify/config/webservices/IntegrifyDocWsdlEndPoint.java
/home/longbridge/Desktop/Longbridge/IntegrifyFinacleWebService/src/main/java/com/longbridge/soap/integrify/models/ServiceResponse.java
/home/longbridge/Desktop/Longbridge/IntegrifyFinacleWebService/src/main/java/com/longbridge/console/doc/integrify_finacle_service/ConsoleStatus.java
/home/longbridge/Desktop/Longbridge/IntegrifyFinacleWebService/src/main/java/com/longbridge/console/doc/integrify_finacle_service/GetConsoleDocResponse.java
/home/longbridge/Desktop/Longbridge/IntegrifyFinacleWebService/src/main/java/com/longbridge/soap/integrify/config/fiservices/MySSLSocketFactory.java
/home/longbridge/Desktop/Longbridge/IntegrifyFinacleWebService/src/main/java/com/longbridge/soap/integrify/models/IntegrifyRequest.java
/home/longbridge/Desktop/Longbridge/IntegrifyFinacleWebService/src/main/java/com/longbridge/soap/integrify/services/implementation/ProcessIntegrifyOnFIService.java
/home/longbridge/Desktop/Longbridge/IntegrifyFinacleWebService/src/main/java/com/longbridge/soap/integrify/config/fiservices/CustomHttpClient.java
/home/longbridge/Desktop/Longbridge/IntegrifyFinacleWebService/src/main/java/com/longbridge/soap/integrify/config/webservices/ConsoleDocWsdlEndPoint.java
/home/longbridge/Desktop/Longbridge/IntegrifyFinacleWebService/src/main/java/com/longbridge/console/doc/integrify_finacle_service/GetConsoleDocRequest.java
/home/longbridge/Desktop/Longbridge/IntegrifyFinacleWebService/src/main/java/com/longbridge/soap/integrify/config/webservices/WebServiceConfig.java
/home/longbridge/Desktop/Longbridge/IntegrifyFinacleWebService/src/main/java/com/longbridge/console/doc/integrify_finacle_service/ServiceStatus.java
/home/longbridge/Desktop/Longbridge/IntegrifyFinacleWebService/src/main/java/com/longbridge/soap/integrify/services/implementation/IntegrifyDocServiceImpl.java
